ARM GAS  C:\Users\mattma1\AppData\Local\Temp\ccsAF7mF.s 			page 1


   1              		.syntax unified
   2              		.cpu cortex-m0plus
   3              		.fpu softvfp
   4              		.eabi_attribute 20, 1
   5              		.eabi_attribute 21, 1
   6              		.eabi_attribute 23, 3
   7              		.eabi_attribute 24, 1
   8              		.eabi_attribute 25, 1
   9              		.eabi_attribute 26, 1
  10              		.eabi_attribute 30, 1
  11              		.eabi_attribute 34, 0
  12              		.eabi_attribute 18, 4
  13              		.thumb
  14              		.syntax unified
  15              		.file	"cymetadata.c"
  16              		.text
  17              	.Ltext0:
  18              		.cfi_sections	.debug_frame
  19              		.global	cy_metadata
  20              		.section	.cymeta,"a",%progbits
  21              		.align	2
  22              		.type	cy_metadata, %object
  23              		.size	cy_metadata, 12
  24              	cy_metadata:
  25 0000 00       		.byte	0
  26 0001 05       		.byte	5
  27 0002 E2       		.byte	-30
  28 0003 F0       		.byte	-16
  29 0004 21       		.byte	33
  30 0005 00       		.byte	0
  31 0006 21       		.byte	33
  32 0007 01       		.byte	1
  33 0008 00       		.byte	0
  34 0009 00       		.byte	0
  35 000a 00       		.byte	0
  36 000b 00       		.byte	0
  37              		.text
  38              	.Letext0:
  39              		.file 1 "c:\\program files (x86)\\cypress\\psoc creator\\4.3\\psoc creator\\import\\gnu\\arm\\5.4.
  40              		.file 2 "c:\\program files (x86)\\cypress\\psoc creator\\4.3\\psoc creator\\import\\gnu\\arm\\5.4.
  41              		.file 3 "Generated_Source\\PSoC6\\cymetadata.c"
  42              		.section	.debug_info,"",%progbits
  43              	.Ldebug_info0:
  44 0000 A8000000 		.4byte	0xa8
  45 0004 0400     		.2byte	0x4
  46 0006 00000000 		.4byte	.Ldebug_abbrev0
  47 000a 04       		.byte	0x4
  48 000b 01       		.uleb128 0x1
  49 000c 20010000 		.4byte	.LASF12
  50 0010 0C       		.byte	0xc
  51 0011 A6000000 		.4byte	.LASF13
  52 0015 49000000 		.4byte	.LASF14
  53 0019 00000000 		.4byte	.Ldebug_line0
  54 001d 02       		.uleb128 0x2
  55 001e 01       		.byte	0x1
  56 001f 06       		.byte	0x6
  57 0020 B2010000 		.4byte	.LASF0
ARM GAS  C:\Users\mattma1\AppData\Local\Temp\ccsAF7mF.s 			page 2


  58 0024 03       		.uleb128 0x3
  59 0025 00000000 		.4byte	.LASF9
  60 0029 01       		.byte	0x1
  61 002a 1D       		.byte	0x1d
  62 002b 2F000000 		.4byte	0x2f
  63 002f 02       		.uleb128 0x2
  64 0030 01       		.byte	0x1
  65 0031 08       		.byte	0x8
  66 0032 16000000 		.4byte	.LASF1
  67 0036 02       		.uleb128 0x2
  68 0037 02       		.byte	0x2
  69 0038 05       		.byte	0x5
  70 0039 0D010000 		.4byte	.LASF2
  71 003d 02       		.uleb128 0x2
  72 003e 02       		.byte	0x2
  73 003f 07       		.byte	0x7
  74 0040 36000000 		.4byte	.LASF3
  75 0044 02       		.uleb128 0x2
  76 0045 04       		.byte	0x4
  77 0046 05       		.byte	0x5
  78 0047 17010000 		.4byte	.LASF4
  79 004b 02       		.uleb128 0x2
  80 004c 04       		.byte	0x4
  81 004d 07       		.byte	0x7
  82 004e 24000000 		.4byte	.LASF5
  83 0052 02       		.uleb128 0x2
  84 0053 08       		.byte	0x8
  85 0054 05       		.byte	0x5
  86 0055 FF000000 		.4byte	.LASF6
  87 0059 02       		.uleb128 0x2
  88 005a 08       		.byte	0x8
  89 005b 07       		.byte	0x7
  90 005c D7000000 		.4byte	.LASF7
  91 0060 04       		.uleb128 0x4
  92 0061 04       		.byte	0x4
  93 0062 05       		.byte	0x5
  94 0063 696E7400 		.ascii	"int\000"
  95 0067 02       		.uleb128 0x2
  96 0068 04       		.byte	0x4
  97 0069 07       		.byte	0x7
  98 006a CA000000 		.4byte	.LASF8
  99 006e 03       		.uleb128 0x3
 100 006f EE000000 		.4byte	.LASF10
 101 0073 02       		.byte	0x2
 102 0074 18       		.byte	0x18
 103 0075 24000000 		.4byte	0x24
 104 0079 05       		.uleb128 0x5
 105 007a 90000000 		.4byte	0x90
 106 007e 89000000 		.4byte	0x89
 107 0082 06       		.uleb128 0x6
 108 0083 89000000 		.4byte	0x89
 109 0087 0B       		.byte	0xb
 110 0088 00       		.byte	0
 111 0089 02       		.uleb128 0x2
 112 008a 04       		.byte	0x4
 113 008b 07       		.byte	0x7
 114 008c F6000000 		.4byte	.LASF11
ARM GAS  C:\Users\mattma1\AppData\Local\Temp\ccsAF7mF.s 			page 3


 115 0090 07       		.uleb128 0x7
 116 0091 6E000000 		.4byte	0x6e
 117 0095 08       		.uleb128 0x8
 118 0096 0A000000 		.4byte	.LASF15
 119 009a 03       		.byte	0x3
 120 009b 1F       		.byte	0x1f
 121 009c A6000000 		.4byte	0xa6
 122 00a0 05       		.uleb128 0x5
 123 00a1 03       		.byte	0x3
 124 00a2 00000000 		.4byte	cy_metadata
 125 00a6 07       		.uleb128 0x7
 126 00a7 79000000 		.4byte	0x79
 127 00ab 00       		.byte	0
 128              		.section	.debug_abbrev,"",%progbits
 129              	.Ldebug_abbrev0:
 130 0000 01       		.uleb128 0x1
 131 0001 11       		.uleb128 0x11
 132 0002 01       		.byte	0x1
 133 0003 25       		.uleb128 0x25
 134 0004 0E       		.uleb128 0xe
 135 0005 13       		.uleb128 0x13
 136 0006 0B       		.uleb128 0xb
 137 0007 03       		.uleb128 0x3
 138 0008 0E       		.uleb128 0xe
 139 0009 1B       		.uleb128 0x1b
 140 000a 0E       		.uleb128 0xe
 141 000b 10       		.uleb128 0x10
 142 000c 17       		.uleb128 0x17
 143 000d 00       		.byte	0
 144 000e 00       		.byte	0
 145 000f 02       		.uleb128 0x2
 146 0010 24       		.uleb128 0x24
 147 0011 00       		.byte	0
 148 0012 0B       		.uleb128 0xb
 149 0013 0B       		.uleb128 0xb
 150 0014 3E       		.uleb128 0x3e
 151 0015 0B       		.uleb128 0xb
 152 0016 03       		.uleb128 0x3
 153 0017 0E       		.uleb128 0xe
 154 0018 00       		.byte	0
 155 0019 00       		.byte	0
 156 001a 03       		.uleb128 0x3
 157 001b 16       		.uleb128 0x16
 158 001c 00       		.byte	0
 159 001d 03       		.uleb128 0x3
 160 001e 0E       		.uleb128 0xe
 161 001f 3A       		.uleb128 0x3a
 162 0020 0B       		.uleb128 0xb
 163 0021 3B       		.uleb128 0x3b
 164 0022 0B       		.uleb128 0xb
 165 0023 49       		.uleb128 0x49
 166 0024 13       		.uleb128 0x13
 167 0025 00       		.byte	0
 168 0026 00       		.byte	0
 169 0027 04       		.uleb128 0x4
 170 0028 24       		.uleb128 0x24
 171 0029 00       		.byte	0
ARM GAS  C:\Users\mattma1\AppData\Local\Temp\ccsAF7mF.s 			page 4


 172 002a 0B       		.uleb128 0xb
 173 002b 0B       		.uleb128 0xb
 174 002c 3E       		.uleb128 0x3e
 175 002d 0B       		.uleb128 0xb
 176 002e 03       		.uleb128 0x3
 177 002f 08       		.uleb128 0x8
 178 0030 00       		.byte	0
 179 0031 00       		.byte	0
 180 0032 05       		.uleb128 0x5
 181 0033 01       		.uleb128 0x1
 182 0034 01       		.byte	0x1
 183 0035 49       		.uleb128 0x49
 184 0036 13       		.uleb128 0x13
 185 0037 01       		.uleb128 0x1
 186 0038 13       		.uleb128 0x13
 187 0039 00       		.byte	0
 188 003a 00       		.byte	0
 189 003b 06       		.uleb128 0x6
 190 003c 21       		.uleb128 0x21
 191 003d 00       		.byte	0
 192 003e 49       		.uleb128 0x49
 193 003f 13       		.uleb128 0x13
 194 0040 2F       		.uleb128 0x2f
 195 0041 0B       		.uleb128 0xb
 196 0042 00       		.byte	0
 197 0043 00       		.byte	0
 198 0044 07       		.uleb128 0x7
 199 0045 26       		.uleb128 0x26
 200 0046 00       		.byte	0
 201 0047 49       		.uleb128 0x49
 202 0048 13       		.uleb128 0x13
 203 0049 00       		.byte	0
 204 004a 00       		.byte	0
 205 004b 08       		.uleb128 0x8
 206 004c 34       		.uleb128 0x34
 207 004d 00       		.byte	0
 208 004e 03       		.uleb128 0x3
 209 004f 0E       		.uleb128 0xe
 210 0050 3A       		.uleb128 0x3a
 211 0051 0B       		.uleb128 0xb
 212 0052 3B       		.uleb128 0x3b
 213 0053 0B       		.uleb128 0xb
 214 0054 49       		.uleb128 0x49
 215 0055 13       		.uleb128 0x13
 216 0056 3F       		.uleb128 0x3f
 217 0057 19       		.uleb128 0x19
 218 0058 02       		.uleb128 0x2
 219 0059 18       		.uleb128 0x18
 220 005a 00       		.byte	0
 221 005b 00       		.byte	0
 222 005c 00       		.byte	0
 223              		.section	.debug_aranges,"",%progbits
 224 0000 14000000 		.4byte	0x14
 225 0004 0200     		.2byte	0x2
 226 0006 00000000 		.4byte	.Ldebug_info0
 227 000a 04       		.byte	0x4
 228 000b 00       		.byte	0
ARM GAS  C:\Users\mattma1\AppData\Local\Temp\ccsAF7mF.s 			page 5


 229 000c 0000     		.2byte	0
 230 000e 0000     		.2byte	0
 231 0010 00000000 		.4byte	0
 232 0014 00000000 		.4byte	0
 233              		.section	.debug_line,"",%progbits
 234              	.Ldebug_line0:
 235 0000 3D010000 		.section	.debug_str,"MS",%progbits,1
 235      02003701 
 235      00000201 
 235      FB0E0D00 
 235      01010101 
 236              	.LASF9:
 237 0000 5F5F7569 		.ascii	"__uint8_t\000"
 237      6E74385F 
 237      7400
 238              	.LASF15:
 239 000a 63795F6D 		.ascii	"cy_metadata\000"
 239      65746164 
 239      61746100 
 240              	.LASF1:
 241 0016 756E7369 		.ascii	"unsigned char\000"
 241      676E6564 
 241      20636861 
 241      7200
 242              	.LASF5:
 243 0024 6C6F6E67 		.ascii	"long unsigned int\000"
 243      20756E73 
 243      69676E65 
 243      6420696E 
 243      7400
 244              	.LASF3:
 245 0036 73686F72 		.ascii	"short unsigned int\000"
 245      7420756E 
 245      7369676E 
 245      65642069 
 245      6E7400
 246              	.LASF14:
 247 0049 433A5C4D 		.ascii	"C:\\MyStuff\\Cypress\\Projects\\PSoC6_PhaseShiftPWM"
 247      79537475 
 247      66665C43 
 247      79707265 
 247      73735C50 
 248 0078 735C576F 		.ascii	"s\\Workspace01\\UART_Low_Level_User_ISR01.cydsn\000"
 248      726B7370 
 248      61636530 
 248      315C5541 
 248      52545F4C 
 249              	.LASF13:
 250 00a6 47656E65 		.ascii	"Generated_Source\\PSoC6\\cymetadata.c\000"
 250      72617465 
 250      645F536F 
 250      75726365 
 250      5C50536F 
 251              	.LASF8:
 252 00ca 756E7369 		.ascii	"unsigned int\000"
 252      676E6564 
 252      20696E74 
ARM GAS  C:\Users\mattma1\AppData\Local\Temp\ccsAF7mF.s 			page 6


 252      00
 253              	.LASF7:
 254 00d7 6C6F6E67 		.ascii	"long long unsigned int\000"
 254      206C6F6E 
 254      6720756E 
 254      7369676E 
 254      65642069 
 255              	.LASF10:
 256 00ee 75696E74 		.ascii	"uint8_t\000"
 256      385F7400 
 257              	.LASF11:
 258 00f6 73697A65 		.ascii	"sizetype\000"
 258      74797065 
 258      00
 259              	.LASF6:
 260 00ff 6C6F6E67 		.ascii	"long long int\000"
 260      206C6F6E 
 260      6720696E 
 260      7400
 261              	.LASF2:
 262 010d 73686F72 		.ascii	"short int\000"
 262      7420696E 
 262      7400
 263              	.LASF4:
 264 0117 6C6F6E67 		.ascii	"long int\000"
 264      20696E74 
 264      00
 265              	.LASF12:
 266 0120 474E5520 		.ascii	"GNU C11 5.4.1 20160609 (release) [ARM/embedded-5-br"
 266      43313120 
 266      352E342E 
 266      31203230 
 266      31363036 
 267 0153 616E6368 		.ascii	"anch revision 237715] -mcpu=cortex-m0plus -mthumb -"
 267      20726576 
 267      6973696F 
 267      6E203233 
 267      37373135 
 268 0186 67202D4F 		.ascii	"g -Og -ffunction-sections -ffat-lto-objects\000"
 268      67202D66 
 268      66756E63 
 268      74696F6E 
 268      2D736563 
 269              	.LASF0:
 270 01b2 7369676E 		.ascii	"signed char\000"
 270      65642063 
 270      68617200 
 271              		.ident	"GCC: (GNU Tools for ARM Embedded Processors) 5.4.1 20160609 (release) [ARM/embedded-5-bran
